<svg width="42" height="42" viewBox="0 0 42 42" fill="none" xmlns="http://www.w3.org/2000/svg">
<circle cx="21" cy="21" r="21" fill="#E0E0E0"/>
<path d="M21.0001 23.9474C22.9921 23.9474 24.5881 22.3676 24.5881 20.4105L24.6001 13.3368C24.6001 11.3798 22.9921 9.79999 21.0001 9.79999C19.0081 9.79999 17.4001 11.3798 17.4001 13.3368V20.4105C17.4001 22.3676 19.0081 23.9474 21.0001 23.9474ZM27.3601 20.4105C27.3601 23.9474 24.3121 26.4231 21.0001 26.4231C17.6881 26.4231 14.6401 23.9474 14.6401 20.4105H12.6001C12.6001 24.4307 15.8641 27.7554 19.8001 28.333V32.2H22.2001V28.333C26.1361 27.7671 29.4001 24.4425 29.4001 20.4105H27.3601Z" fill="#2F80ED"/>
</svg>
